{
  "shell_port": 56317,
  "iopub_port": 58567,
  "stdin_port": 38851,
  "control_port": 49999,
  "hb_port": 40373,
  "ip": "127.0.0.1",
  "key": "c3f578fd-e5db5222c58b0ff29a945c75",
  "transport": "tcp",
  "signature_scheme": "hmac-sha256",
  "kernel_name": ""
}